{
  "movies": [
    {
      "title": "Popular",
      "page": 1,
      "total_results": 19868,
      "total_pages": 994,
      "results": [
        {
          "vote_count": 650,
          "id": 399579,
          "video": false,
          "vote_average": 6.7,
          "title": "Alita: Battle Angel",
          "popularity": 362.08,
          "poster_path": "/xRWht48C2V8XNfzvPehyClOvDni.jpg",
          "original_language": "en",
          "original_title": "Alita: Battle Angel",
          "genre_ids": [
            28,
            878,
            53
          ],
          "backdrop_path": "/aQXTw3wIWuFMy0beXRiZ1xVKtcf.jpg",
          "adult": false,
          "overview": "When Alita awakens with no memory of who she is in a future world she does not recognize, she is taken in by Ido, a compassionate doctor who realizes that somewhere in this abandoned cyborg shell is the heart and soul of a young woman with an extraordinary past.",
          "release_date": "2019-01-31"
        },
        {
          "vote_count": 1308,
          "id": 480530,
          "video": false,
          "vote_average": 6.6,
          "title": "Creed II",
          "popularity": 269.694,
          "poster_path": "/v3QyboWRoA4O9RbcsqH8tJMe8EB.jpg",
          "original_language": "en",
          "original_title": "Creed II",
          "genre_ids": [
            18
          ],
          "backdrop_path": "/8yqLPNwNCtpOPc3XkOlkSMnghzw.jpg",
          "adult": false,
          "overview": "Between personal obligations and training for his next big fight against an opponent with ties to his family's past, Adonis Creed is up against the challenge of his life.",
          "release_date": "2018-11-21"
        },
        {
          "vote_count": 1681,
          "id": 324857,
          "video": false,
          "vote_average": 8.5,
          "title": "Spider-Man: Into the Spider-Verse",
          "popularity": 197.082,
          "poster_path": "/iiZZdoQBEYBv6id8su7ImL0oCbD.jpg",
          "original_language": "en",
          "original_title": "Spider-Man: Into the Spider-Verse",
          "genre_ids": [
            28,
            12,
            16,
            878,
            35
          ],
          "backdrop_path": "/7d6EY00g1c39SGZOoCJ5Py9nNth.jpg",
          "adult": false,
          "overview": "Miles Morales is juggling his life between being a high school student and being a spider-man. When Wilson \"Kingpin\" Fisk uses a super collider, others from across the Spider-Verse are transported to this dimension.",
          "release_date": "2018-12-07"
        },
        {
          "vote_count": 1446,
          "id": 450465,
          "video": false,
          "vote_average": 6.7,
          "title": "Glass",
          "popularity": 191.769,
          "poster_path": "/svIDTNUoajS8dLEo7EosxvyAsgJ.jpg",
          "original_language": "en",
          "original_title": "Glass",
          "genre_ids": [
            53,
            9648,
            18,
            14
          ],
          "backdrop_path": "/lvjscO8wmpEbIfOEZi92Je8Ktlg.jpg",
          "adult": false,
          "overview": "In a series of escalating encounters, security guard David Dunn uses his supernatural abilities to track Kevin Wendell Crumb, a disturbed man who has twenty-four personalities. Meanwhile, the shadowy presence of Elijah Price emerges as an orchestrator who holds secrets critical to both men.",
          "release_date": "2019-01-16"
        },
        {
          "vote_count": 1266,
          "id": 490132,
          "video": false,
          "vote_average": 8.4,
          "title": "Green Book",
          "popularity": 180.355,
          "poster_path": "/7BsvSuDQuoqhWmU2fL7W2GOcZHU.jpg",
          "original_language": "en",
          "original_title": "Green Book",
          "genre_ids": [
            18,
            35,
            10402
          ],
          "backdrop_path": "/78PjwaykLY2QqhMfWRDvmfbC6EV.jpg",
          "adult": false,
          "overview": "Tony Lip, a bouncer in 1962, is hired to drive pianist Don Shirley on a tour through the Deep South in the days when African Americans, forced to find alternate accommodations and services due to segregation laws below the Mason-Dixon Line, relied on a guide called The Negro Motorist Green Book.",
          "release_date": "2018-11-16"
        }
      ]
    },
    {
      "title": "Top rated",
      "page": 2,
      "total_results": 19868,
      "total_pages": 994,
      "results": [
        {
          "vote_count": 31,
          "id": 220882,
          "video": false,
          "vote_average": 6,
          "title": "London Fields",
          "popularity": 81.91,
          "poster_path": "/7OfQVm5GexlAREp8FoR4ILxp35T.jpg",
          "original_language": "en",
          "original_title": "London Fields",
          "genre_ids": [
            80,
            9648,
            53,
            18
          ],
          "backdrop_path": "/ichPk1vuRGYN5OmdSYBfJu5bWgu.jpg",
          "adult": false,
          "overview": "Clairvoyant femme fatale Nicola Six has been living with a dark premonition of her impending death by murder. She begins a tangled love affair with three uniquely different men: one of whom she knows will be her murderer.",
          "release_date": "2018-09-20"
        },
        {
          "vote_count": 4984,
          "id": 335983,
          "video": false,
          "vote_average": 6.6,
          "title": "Venom",
          "popularity": 81.368,
          "poster_path": "/2uNW4WbgBXL25BAbXGLnLqX71Sw.jpg",
          "original_language": "en",
          "original_title": "Venom",
          "genre_ids": [
            878,
            28
          ],
          "backdrop_path": "/VuukZLgaCrho2Ar8Scl9HtV3yD.jpg",
          "adult": false,
          "overview": "Investigative journalist Eddie Brock attempts a comeback following a scandal, but accidentally becomes the host of Venom, a violent, super powerful alien symbiote. Soon, he must rely on his newfound powers to protect the world from a shadowy organization looking for a symbiote of their own.",
          "release_date": "2018-09-28"
        },
        {
          "vote_count": 1247,
          "id": 424783,
          "video": false,
          "vote_average": 6.4,
          "title": "Bumblebee",
          "popularity": 77.954,
          "poster_path": "/fw02ONlDhrYjTSZV8XO6hhU3ds3.jpg",
          "original_language": "en",
          "original_title": "Bumblebee",
          "genre_ids": [
            28,
            12,
            878
          ],
          "backdrop_path": "/hMANgfPHR1tRObNp2oPiOi9mMlz.jpg",
          "adult": false,
          "overview": "On the run in the year 1987, Bumblebee finds refuge in a junkyard in a small Californian beach town. Charlie, on the cusp of turning 18 and trying to find her place in the world, discovers Bumblebee, battle-scarred and broken.  When Charlie revives him, she quickly learns this is no ordinary yellow VW bug.",
          "release_date": "2018-12-15"
        },
        {
          "vote_count": 572,
          "id": 438799,
          "video": false,
          "vote_average": 6.8,
          "title": "Overlord",
          "popularity": 77.544,
          "poster_path": "/l76Rgp32z2UxjULApxGXAPpYdAP.jpg",
          "original_language": "en",
          "original_title": "Overlord",
          "genre_ids": [
            27,
            10752,
            28,
            878
          ],
          "backdrop_path": "/sHNC8hjAu4ZKXYhG3cp8ghRZ02B.jpg",
          "adult": false,
          "overview": "France, World War II, June 1944. On the eve of D-Day, some American paratroopers fall behind enemy lines after their plane crashes during a mission consisting of destroying a German radio tower in Cielblanc, a small village near the beaches of Normandy. After reaching their target, the surviving paratroopers realize that, in addition to fighting Nazi troops that patrol the village, they also must fight against something else.",
          "release_date": "2018-11-01"
        },
        {
          "vote_count": 19,
          "id": 390634,
          "video": false,
          "vote_average": 4.2,
          "title": "Fate/stay night: Heaven’s Feel II. lost butterfly",
          "popularity": 77.107,
          "poster_path": "/4tS0iyKQBDFqVpVcH21MSJwXZdq.jpg",
          "original_language": "ja",
          "original_title": "劇場版「Fate/stay night [Heaven's Feel] ⅠⅠ. lost butterfly」",
          "genre_ids": [
            16,
            28,
            14,
            12
          ],
          "backdrop_path": "/3haESpzscyP1pLl2BxQ9j5KK9cM.jpg",
          "adult": false,
          "overview": "Theatrical-release adaptation of the visual novel \"Fate/stay night\", following the third and final route. (Part 2 of a trilogy.)",
          "release_date": "2019-01-12"
        }
      ]
    }
  ]
}
